            ,-~¨^  ^¨-,           _,
           /          / ;^-._...,¨/
          /          / /         /
         /          / /         /
        /          / /         /
       /,.-:''-,_ / /         /
       _,.-:--._ ^ ^:-._ __../
     /^         / /¨:.._¨__.;
    /          / /      ^  /
   /          / /         /
  /          / /         /
 /_,.--:^-._/ /         /
^            ^¨¨-.___.:^ 
